---
http_interactions:
- request:
    method: get
    uri: https://api.flickr.com/services/rest?api_key=420dff41e4312b17f82310895dca8123&extras=url_c&format=json&method=flickr.photos.search&nojsoncallback=1&per_page=1&text=Tampa%20FL%20night%20cloudy
    body:
      encoding: US-ASCII
      string: ''
    headers:
      User-Agent:
      - Faraday v1.4.1
      Accept-Encoding:
      - gzip;q=1.0,deflate;q=0.6,identity;q=0.3
      Accept:
      - "*/*"
  response:
    status:
      code: 200
      message: OK
    headers:
      Content-Type:
      - application/json
      Content-Length:
      - '340'
      Connection:
      - keep-alive
      Date:
      - Tue, 27 Apr 2021 02:25:00 GMT
      Server:
      - Apache/2.4.46 (Ubuntu)
      Set-Cookie:
      - ccc=%7B%22needsConsent%22%3Afalse%2C%22managed%22%3A0%2C%22changed%22%3A0%2C%22info%22%3A%7B%22cookieBlock%22%3A%7B%22level%22%3A0%2C%22blockRan%22%3A0%7D%7D%7D;
        expires=Thu, 27-May-2021 02:25:00 GMT; Max-Age=2592000; path=/; domain=.flickr.com
      X-Content-Type-Options:
      - nosniff
      X-Frame-Options:
      - SAMEORIGIN
      X-Cache:
      - Miss from cloudfront
      Via:
      - 1.1 4034587c7184df936ffe61c7ddedcd7d.cloudfront.net (CloudFront)
      X-Amz-Cf-Pop:
      - MIA3-C2
      X-Amz-Cf-Id:
      - PNcnR5ZLCT3QA08sZlByn_ZnsSHux4VR_ZyZ2QGV2OFjH1dy-OjOVw==
    body:
      encoding: UTF-8
      string: '{"photos":{"page":1,"pages":17,"perpage":1,"total":"17","photo":[{"id":"26035054186","owner":"50687522@N00","secret":"0328787533","server":"1692","farm":2,"title":"Building
        LEDs","ispublic":1,"isfriend":0,"isfamily":0,"url_c":"https:\/\/live.staticflickr.com\/1692\/26035054186_0328787533_c.jpg","height_c":600,"width_c":800}]},"stat":"ok"}'
  recorded_at: Tue, 27 Apr 2021 02:25:00 GMT
recorded_with: VCR 6.0.0
