---
http_interactions:
- request:
    method: get
    uri: https://api.flickr.com/services/rest?api_key=420dff41e4312b17f82310895dca8123&extras=url_c&format=json&method=flickr.photos.search&nojsoncallback=1&per_page=1&text=12345%20night%20
    body:
      encoding: US-ASCII
      string: ''
    headers:
      User-Agent:
      - Faraday v1.4.1
      Accept-Encoding:
      - gzip;q=1.0,deflate;q=0.6,identity;q=0.3
      Accept:
      - "*/*"
  response:
    status:
      code: 200
      message: OK
    headers:
      Content-Type:
      - application/json
      Content-Length:
      - '342'
      Connection:
      - keep-alive
      Date:
      - Tue, 27 Apr 2021 02:47:46 GMT
      Server:
      - Apache/2.4.46 (Ubuntu)
      Set-Cookie:
      - ccc=%7B%22needsConsent%22%3Afalse%2C%22managed%22%3A0%2C%22changed%22%3A0%2C%22info%22%3A%7B%22cookieBlock%22%3A%7B%22level%22%3A0%2C%22blockRan%22%3A0%7D%7D%7D;
        expires=Thu, 27-May-2021 02:47:46 GMT; Max-Age=2592000; path=/; domain=.flickr.com
      X-Content-Type-Options:
      - nosniff
      X-Frame-Options:
      - SAMEORIGIN
      X-Cache:
      - Miss from cloudfront
      Via:
      - 1.1 f66b005748e9a5caac6d3baab6b04ca4.cloudfront.net (CloudFront)
      X-Amz-Cf-Pop:
      - MIA3-C2
      X-Amz-Cf-Id:
      - LHVnZXsDqJxvXCBeNKRCq4DFs44Lrd8tBMk3Sfo8YvZ_4kBsmqSWPg==
    body:
      encoding: UTF-8
      string: '{"photos":{"page":1,"pages":66,"perpage":1,"total":"66","photo":[{"id":"51096297192","owner":"131384299@N04","secret":"c265dfaeac","server":"65535","farm":66,"title":"Night
        12345","ispublic":1,"isfriend":0,"isfamily":0,"url_c":"https:\/\/live.staticflickr.com\/65535\/51096297192_c265dfaeac_c.jpg","height_c":534,"width_c":800}]},"stat":"ok"}'
  recorded_at: Tue, 27 Apr 2021 02:47:46 GMT
recorded_with: VCR 6.0.0
