---
http_interactions:
- request:
    method: get
    uri: https://api.openweathermap.org/data/2.5/onecall?appid=DONT_LOOK_AGAIN&exclude=alerts,minutely&lat=51.50015&lon=-0.12624&units=imperial
    body:
      encoding: US-ASCII
      string: ''
    headers:
      User-Agent:
      - Faraday v1.4.1
      Accept-Encoding:
      - gzip;q=1.0,deflate;q=0.6,identity;q=0.3
      Accept:
      - "*/*"
  response:
    status:
      code: 200
      message: OK
    headers:
      Server:
      - openresty
      Date:
      - Tue, 27 Apr 2021 16:11:35 GMT
      Content-Type:
      - application/json; charset=utf-8
      Content-Length:
      - '18060'
      Connection:
      - keep-alive
      X-Cache-Key:
      - "/data/2.5/onecall?exclude=alerts%2Cminutely&lat=51.5&lon=-0.13&units=imperial"
      Access-Control-Allow-Origin:
      - "*"
      Access-Control-Allow-Credentials:
      - 'true'
      Access-Control-Allow-Methods:
      - GET, POST
    body:
      encoding: UTF-8
      string: '{"lat":51.5002,"lon":-0.1262,"timezone":"Europe/London","timezone_offset":3600,"current":{"dt":1619539895,"sunrise":1619498380,"sunset":1619550978,"temp":61.61,"feels_like":59.4,"pressure":1007,"humidity":41,"dew_point":37.71,"uvi":0.67,"clouds":99,"visibility":10000,"wind_speed":11.5,"wind_deg":90,"weather":[{"id":804,"main":"Clouds","description":"overcast
        clouds","icon":"04d"}]},"hourly":[{"dt":1619539200,"temp":61.61,"feels_like":59.4,"pressure":1007,"humidity":41,"dew_point":37.71,"uvi":0.67,"clouds":99,"visibility":10000,"wind_speed":3.42,"wind_deg":90,"wind_gust":4.32,"weather":[{"id":804,"main":"Clouds","description":"overcast
        clouds","icon":"04d"}],"pop":0},{"dt":1619542800,"temp":60.66,"feels_like":58.39,"pressure":1007,"humidity":42,"dew_point":37.47,"uvi":0.32,"clouds":99,"visibility":10000,"wind_speed":8.01,"wind_deg":100,"wind_gust":7.25,"weather":[{"id":804,"main":"Clouds","description":"overcast
        clouds","icon":"04d"}],"pop":0},{"dt":1619546400,"temp":58.5,"feels_like":56.21,"pressure":1007,"humidity":46,"dew_point":37.81,"uvi":0.11,"clouds":97,"visibility":10000,"wind_speed":10.07,"wind_deg":108,"wind_gust":12.64,"weather":[{"id":804,"main":"Clouds","description":"overcast
        clouds","icon":"04d"}],"pop":0},{"dt":1619550000,"temp":55.42,"feels_like":53.1,"pressure":1008,"humidity":52,"dew_point":38.1,"uvi":0,"clouds":49,"visibility":10000,"wind_speed":7.61,"wind_deg":116,"wind_gust":14.34,"weather":[{"id":802,"main":"Clouds","description":"scattered
        clouds","icon":"03d"}],"pop":0.04},{"dt":1619553600,"temp":52.12,"feels_like":49.71,"pressure":1008,"humidity":57,"dew_point":37.38,"uvi":0,"clouds":55,"visibility":10000,"wind_speed":6.35,"wind_deg":114,"wind_gust":11.07,"weather":[{"id":803,"main":"Clouds","description":"broken
        clouds","icon":"04n"}],"pop":0.04},{"dt":1619557200,"temp":49.14,"feels_like":46.58,"pressure":1008,"humidity":62,"dew_point":36.59,"uvi":0,"clouds":54,"visibility":10000,"wind_speed":6.11,"wind_deg":109,"wind_gust":9.95,"weather":[{"id":803,"main":"Clouds","description":"broken
        clouds","icon":"04n"}],"pop":0.04},{"dt":1619560800,"temp":48.76,"feels_like":46.2,"pressure":1008,"humidity":61,"dew_point":36.12,"uvi":0,"clouds":65,"visibility":10000,"wind_speed":5.97,"wind_deg":96,"wind_gust":9.19,"weather":[{"id":803,"main":"Clouds","description":"broken
        clouds","icon":"04n"}],"pop":0.04},{"dt":1619564400,"temp":48.04,"feels_like":44.92,"pressure":1008,"humidity":60,"dew_point":35.13,"uvi":0,"clouds":72,"visibility":10000,"wind_speed":6.78,"wind_deg":91,"wind_gust":11.21,"weather":[{"id":803,"main":"Clouds","description":"broken
        clouds","icon":"04n"}],"pop":0.04},{"dt":1619568000,"temp":46.83,"feels_like":43.88,"pressure":1008,"humidity":63,"dew_point":34.9,"uvi":0,"clouds":76,"visibility":10000,"wind_speed":6.02,"wind_deg":87,"wind_gust":11.56,"weather":[{"id":803,"main":"Clouds","description":"broken
        clouds","icon":"04n"}],"pop":0.08},{"dt":1619571600,"temp":45.34,"feels_like":42.71,"pressure":1007,"humidity":68,"dew_point":35.24,"uvi":0,"clouds":79,"visibility":10000,"wind_speed":5.06,"wind_deg":72,"wind_gust":11.07,"weather":[{"id":803,"main":"Clouds","description":"broken
        clouds","icon":"04n"}],"pop":0.06},{"dt":1619575200,"temp":44.46,"feels_like":42.1,"pressure":1007,"humidity":69,"dew_point":34.79,"uvi":0,"clouds":86,"visibility":10000,"wind_speed":4.45,"wind_deg":50,"wind_gust":9.86,"weather":[{"id":804,"main":"Clouds","description":"overcast
        clouds","icon":"04n"}],"pop":0.06},{"dt":1619578800,"temp":43.3,"feels_like":40.64,"pressure":1007,"humidity":70,"dew_point":34.02,"uvi":0,"clouds":87,"visibility":10000,"wind_speed":4.61,"wind_deg":36,"wind_gust":10.2,"weather":[{"id":804,"main":"Clouds","description":"overcast
        clouds","icon":"04n"}],"pop":0.06},{"dt":1619582400,"temp":42.26,"feels_like":39.13,"pressure":1006,"humidity":71,"dew_point":33.64,"uvi":0,"clouds":82,"visibility":10000,"wind_speed":5.01,"wind_deg":33,"wind_gust":11.43,"weather":[{"id":803,"main":"Clouds","description":"broken
        clouds","icon":"04n"}],"pop":0.06},{"dt":1619586000,"temp":41.72,"feels_like":38.43,"pressure":1006,"humidity":73,"dew_point":33.69,"uvi":0,"clouds":80,"visibility":10000,"wind_speed":5.1,"wind_deg":34,"wind_gust":12.55,"weather":[{"id":803,"main":"Clouds","description":"broken
        clouds","icon":"04d"}],"pop":0.06},{"dt":1619589600,"temp":43.09,"feels_like":39.33,"pressure":1006,"humidity":70,"dew_point":34.12,"uvi":0.21,"clouds":83,"visibility":10000,"wind_speed":6.17,"wind_deg":43,"wind_gust":12.03,"weather":[{"id":803,"main":"Clouds","description":"broken
        clouds","icon":"04d"}],"pop":0.02},{"dt":1619593200,"temp":45.7,"feels_like":42.12,"pressure":1006,"humidity":66,"dew_point":35.22,"uvi":0.6,"clouds":100,"visibility":10000,"wind_speed":6.8,"wind_deg":46,"wind_gust":12.24,"weather":[{"id":804,"main":"Clouds","description":"overcast
        clouds","icon":"04d"}],"pop":0},{"dt":1619596800,"temp":48.96,"feels_like":45.68,"pressure":1006,"humidity":63,"dew_point":36.86,"uvi":1.3,"clouds":100,"visibility":10000,"wind_speed":7.56,"wind_deg":51,"wind_gust":13.27,"weather":[{"id":804,"main":"Clouds","description":"overcast
        clouds","icon":"04d"}],"pop":0},{"dt":1619600400,"temp":51.84,"feels_like":49.44,"pressure":1005,"humidity":58,"dew_point":37.72,"uvi":2.21,"clouds":100,"visibility":10000,"wind_speed":9.86,"wind_deg":67,"wind_gust":15.57,"weather":[{"id":804,"main":"Clouds","description":"overcast
        clouds","icon":"04d"}],"pop":0},{"dt":1619604000,"temp":54.21,"feels_like":51.69,"pressure":1005,"humidity":50,"dew_point":36.09,"uvi":2.2,"clouds":100,"visibility":10000,"wind_speed":11.97,"wind_deg":77,"wind_gust":17.22,"weather":[{"id":804,"main":"Clouds","description":"overcast
        clouds","icon":"04d"}],"pop":0.24},{"dt":1619607600,"temp":54.03,"feels_like":51.39,"pressure":1005,"humidity":48,"dew_point":35.08,"uvi":2.7,"clouds":100,"visibility":10000,"wind_speed":12.24,"wind_deg":83,"wind_gust":18.39,"weather":[{"id":804,"main":"Clouds","description":"overcast
        clouds","icon":"04d"}],"pop":0.32},{"dt":1619611200,"temp":53.62,"feels_like":50.94,"pressure":1005,"humidity":48,"dew_point":34.23,"uvi":2.9,"clouds":100,"visibility":10000,"wind_speed":13.09,"wind_deg":82,"wind_gust":19.46,"weather":[{"id":804,"main":"Clouds","description":"overcast
        clouds","icon":"04d"}],"pop":0.38},{"dt":1619614800,"temp":53.69,"feels_like":50.92,"pressure":1005,"humidity":46,"dew_point":33.51,"uvi":3.04,"clouds":100,"visibility":10000,"wind_speed":13.15,"wind_deg":70,"wind_gust":21.92,"weather":[{"id":804,"main":"Clouds","description":"overcast
        clouds","icon":"04d"}],"pop":0.42},{"dt":1619618400,"temp":54.23,"feels_like":51.42,"pressure":1004,"humidity":44,"dew_point":33.1,"uvi":2.5,"clouds":100,"visibility":10000,"wind_speed":12.66,"wind_deg":70,"wind_gust":21.61,"weather":[{"id":804,"main":"Clouds","description":"overcast
        clouds","icon":"04d"}],"pop":0.56},{"dt":1619622000,"temp":52.93,"feels_like":50.18,"pressure":1005,"humidity":48,"dew_point":33.98,"uvi":1.78,"clouds":100,"visibility":10000,"wind_speed":10.83,"wind_deg":70,"wind_gust":20.24,"weather":[{"id":500,"main":"Rain","description":"light
        rain","icon":"10d"}],"pop":0.6,"rain":{"1h":0.13}},{"dt":1619625600,"temp":51.93,"feels_like":49.32,"pressure":1005,"humidity":53,"dew_point":35.42,"uvi":1.19,"clouds":100,"visibility":10000,"wind_speed":9.17,"wind_deg":76,"wind_gust":18.84,"weather":[{"id":500,"main":"Rain","description":"light
        rain","icon":"10d"}],"pop":0.62,"rain":{"1h":0.28}},{"dt":1619629200,"temp":49.44,"feels_like":46.78,"pressure":1005,"humidity":68,"dew_point":39.2,"uvi":0.57,"clouds":100,"visibility":10000,"wind_speed":6.46,"wind_deg":56,"wind_gust":16.33,"weather":[{"id":500,"main":"Rain","description":"light
        rain","icon":"10d"}],"pop":0.66,"rain":{"1h":0.85}},{"dt":1619632800,"temp":48.29,"feels_like":43.77,"pressure":1005,"humidity":73,"dew_point":39.79,"uvi":0.2,"clouds":100,"visibility":10000,"wind_speed":10.4,"wind_deg":35,"wind_gust":19.35,"weather":[{"id":500,"main":"Rain","description":"light
        rain","icon":"10d"}],"pop":0.72,"rain":{"1h":0.5}},{"dt":1619636400,"temp":46.17,"feels_like":40.55,"pressure":1005,"humidity":79,"dew_point":40.1,"uvi":0,"clouds":100,"visibility":10000,"wind_speed":12.15,"wind_deg":43,"wind_gust":22.06,"weather":[{"id":500,"main":"Rain","description":"light
        rain","icon":"10d"}],"pop":0.6,"rain":{"1h":0.37}},{"dt":1619640000,"temp":43.97,"feels_like":37.76,"pressure":1006,"humidity":85,"dew_point":39.67,"uvi":0,"clouds":100,"visibility":10000,"wind_speed":12.24,"wind_deg":42,"wind_gust":23.22,"weather":[{"id":500,"main":"Rain","description":"light
        rain","icon":"10n"}],"pop":0.7,"rain":{"1h":0.72}},{"dt":1619643600,"temp":42.98,"feels_like":36.79,"pressure":1006,"humidity":86,"dew_point":38.89,"uvi":0,"clouds":100,"visibility":10000,"wind_speed":11.43,"wind_deg":32,"wind_gust":23.24,"weather":[{"id":500,"main":"Rain","description":"light
        rain","icon":"10n"}],"pop":0.74,"rain":{"1h":0.62}},{"dt":1619647200,"temp":42.85,"feels_like":37.02,"pressure":1007,"humidity":86,"dew_point":39.02,"uvi":0,"clouds":100,"visibility":10000,"wind_speed":10.38,"wind_deg":24,"wind_gust":22.26,"weather":[{"id":500,"main":"Rain","description":"light
        rain","icon":"10n"}],"pop":0.74,"rain":{"1h":0.28}},{"dt":1619650800,"temp":41.92,"feels_like":36.25,"pressure":1007,"humidity":90,"dew_point":39.18,"uvi":0,"clouds":100,"visibility":9314,"wind_speed":9.46,"wind_deg":30,"wind_gust":21.39,"weather":[{"id":500,"main":"Rain","description":"light
        rain","icon":"10n"}],"pop":0.86,"rain":{"1h":0.81}},{"dt":1619654400,"temp":40.86,"feels_like":35.91,"pressure":1007,"humidity":92,"dew_point":38.71,"uvi":0,"clouds":100,"visibility":5442,"wind_speed":7.47,"wind_deg":26,"wind_gust":20.92,"weather":[{"id":501,"main":"Rain","description":"moderate
        rain","icon":"10n"}],"pop":0.86,"rain":{"1h":1.71}},{"dt":1619658000,"temp":41.02,"feels_like":36.57,"pressure":1007,"humidity":93,"dew_point":39.02,"uvi":0,"clouds":100,"visibility":5998,"wind_speed":6.64,"wind_deg":7,"wind_gust":19.01,"weather":[{"id":501,"main":"Rain","description":"moderate
        rain","icon":"10n"}],"pop":0.88,"rain":{"1h":1.96}},{"dt":1619661600,"temp":41.2,"feels_like":36.37,"pressure":1007,"humidity":92,"dew_point":39.11,"uvi":0,"clouds":100,"visibility":8935,"wind_speed":7.38,"wind_deg":356,"wind_gust":18.57,"weather":[{"id":501,"main":"Rain","description":"moderate
        rain","icon":"10n"}],"pop":0.88,"rain":{"1h":1.62}},{"dt":1619665200,"temp":40.96,"feels_like":35.35,"pressure":1007,"humidity":92,"dew_point":38.66,"uvi":0,"clouds":100,"visibility":10000,"wind_speed":8.84,"wind_deg":355,"wind_gust":20.07,"weather":[{"id":501,"main":"Rain","description":"moderate
        rain","icon":"10n"}],"pop":0.9,"rain":{"1h":1.15}},{"dt":1619668800,"temp":40.75,"feels_like":34.99,"pressure":1007,"humidity":92,"dew_point":38.46,"uvi":0,"clouds":100,"visibility":10000,"wind_speed":9.04,"wind_deg":345,"wind_gust":20.69,"weather":[{"id":500,"main":"Rain","description":"light
        rain","icon":"10n"}],"pop":0.86,"rain":{"1h":0.68}},{"dt":1619672400,"temp":40.06,"feels_like":33.91,"pressure":1008,"humidity":91,"dew_point":37.65,"uvi":0,"clouds":100,"visibility":10000,"wind_speed":9.57,"wind_deg":340,"wind_gust":22.48,"weather":[{"id":500,"main":"Rain","description":"light
        rain","icon":"10d"}],"pop":0.86,"rain":{"1h":0.4}},{"dt":1619676000,"temp":39.83,"feels_like":33.55,"pressure":1008,"humidity":88,"dew_point":36.48,"uvi":0.25,"clouds":100,"visibility":10000,"wind_speed":9.73,"wind_deg":336,"wind_gust":23.4,"weather":[{"id":804,"main":"Clouds","description":"overcast
        clouds","icon":"04d"}],"pop":0.86},{"dt":1619679600,"temp":40.8,"feels_like":34.39,"pressure":1009,"humidity":85,"dew_point":36.66,"uvi":0.7,"clouds":100,"visibility":10000,"wind_speed":10.58,"wind_deg":338,"wind_gust":23.96,"weather":[{"id":804,"main":"Clouds","description":"overcast
        clouds","icon":"04d"}],"pop":0},{"dt":1619683200,"temp":43.25,"feels_like":37.11,"pressure":1009,"humidity":77,"dew_point":36.39,"uvi":1.49,"clouds":92,"visibility":10000,"wind_speed":11.5,"wind_deg":343,"wind_gust":21.25,"weather":[{"id":804,"main":"Clouds","description":"overcast
        clouds","icon":"04d"}],"pop":0},{"dt":1619686800,"temp":46.29,"feels_like":40.77,"pressure":1009,"humidity":62,"dew_point":34.14,"uvi":2.53,"clouds":67,"visibility":10000,"wind_speed":11.97,"wind_deg":349,"wind_gust":16.8,"weather":[{"id":803,"main":"Clouds","description":"broken
        clouds","icon":"04d"}],"pop":0},{"dt":1619690400,"temp":49.17,"feels_like":44.56,"pressure":1010,"humidity":49,"dew_point":30.92,"uvi":3.73,"clouds":55,"visibility":10000,"wind_speed":11.36,"wind_deg":352,"wind_gust":15.1,"weather":[{"id":803,"main":"Clouds","description":"broken
        clouds","icon":"04d"}],"pop":0},{"dt":1619694000,"temp":51.42,"feels_like":48.24,"pressure":1010,"humidity":42,"dew_point":29.28,"uvi":4.57,"clouds":47,"visibility":10000,"wind_speed":10.4,"wind_deg":352,"wind_gust":13.8,"weather":[{"id":802,"main":"Clouds","description":"scattered
        clouds","icon":"03d"}],"pop":0},{"dt":1619697600,"temp":53.15,"feels_like":50.14,"pressure":1010,"humidity":42,"dew_point":30.56,"uvi":4.89,"clouds":47,"visibility":10000,"wind_speed":11.99,"wind_deg":347,"wind_gust":13.44,"weather":[{"id":802,"main":"Clouds","description":"scattered
        clouds","icon":"03d"}],"pop":0},{"dt":1619701200,"temp":50.27,"feels_like":47.48,"pressure":1011,"humidity":53,"dew_point":33.87,"uvi":3.82,"clouds":99,"visibility":10000,"wind_speed":12.88,"wind_deg":344,"wind_gust":14.14,"weather":[{"id":804,"main":"Clouds","description":"overcast
        clouds","icon":"04d"}],"pop":0},{"dt":1619704800,"temp":52.32,"feels_like":49.28,"pressure":1011,"humidity":43,"dew_point":30.81,"uvi":3.15,"clouds":97,"visibility":10000,"wind_speed":9.35,"wind_deg":351,"wind_gust":10.25,"weather":[{"id":804,"main":"Clouds","description":"overcast
        clouds","icon":"04d"}],"pop":0},{"dt":1619708400,"temp":50.72,"feels_like":47.66,"pressure":1011,"humidity":46,"dew_point":30.99,"uvi":2.24,"clouds":98,"visibility":10000,"wind_speed":10.71,"wind_deg":351,"wind_gust":10.74,"weather":[{"id":804,"main":"Clouds","description":"overcast
        clouds","icon":"04d"}],"pop":0}],"daily":[{"dt":1619521200,"sunrise":1619498380,"sunset":1619550978,"moonrise":1619553540,"moonset":1619499900,"moon_phase":0.5,"temp":{"day":56.08,"min":37.85,"max":61.61,"night":48.76,"eve":60.66,"morn":37.85},"feels_like":{"day":52.95,"night":37.85,"eve":58.39,"morn":37.85},"pressure":1010,"humidity":33,"dew_point":27.73,"wind_speed":10.07,"wind_deg":108,"wind_gust":14.34,"weather":[{"id":803,"main":"Clouds","description":"broken
        clouds","icon":"04d"}],"clouds":55,"pop":0.04,"uvi":3.35},{"dt":1619607600,"sunrise":1619584664,"sunset":1619637478,"moonrise":1619645400,"moonset":1619587740,"moon_phase":0.55,"temp":{"day":54.03,"min":41.72,"max":54.23,"night":42.85,"eve":49.44,"morn":41.72},"feels_like":{"day":51.39,"night":38.43,"eve":46.78,"morn":38.43},"pressure":1005,"humidity":48,"dew_point":35.08,"wind_speed":13.15,"wind_deg":70,"wind_gust":23.24,"weather":[{"id":500,"main":"Rain","description":"light
        rain","icon":"10d"}],"clouds":100,"pop":0.74,"rain":3.75,"uvi":3.04},{"dt":1619694000,"sunrise":1619670949,"sunset":1619723978,"moonrise":1619737020,"moonset":1619675940,"moon_phase":0.59,"temp":{"day":51.42,"min":39.83,"max":53.15,"night":43.59,"eve":50.52,"morn":40.06},"feels_like":{"day":48.24,"night":33.91,"eve":47.39,"morn":33.91},"pressure":1010,"humidity":42,"dew_point":29.28,"wind_speed":12.88,"wind_deg":344,"wind_gust":23.96,"weather":[{"id":501,"main":"Rain","description":"moderate
        rain","icon":"10d"}],"clouds":47,"pop":0.9,"rain":8.33,"uvi":4.89},{"dt":1619780400,"sunrise":1619757235,"sunset":1619810477,"moonrise":0,"moonset":1619764800,"moon_phase":0.63,"temp":{"day":53.67,"min":37.81,"max":53.67,"night":45.84,"eve":51.93,"morn":37.81},"feels_like":{"day":50.49,"night":37.81,"eve":48.79,"morn":37.81},"pressure":1015,"humidity":37,"dew_point":28.26,"wind_speed":6.58,"wind_deg":338,"wind_gust":11.1,"weather":[{"id":802,"main":"Clouds","description":"scattered
        clouds","icon":"03d"}],"clouds":28,"pop":0.04,"uvi":4.74},{"dt":1619866800,"sunrise":1619843523,"sunset":1619896977,"moonrise":1619827980,"moonset":1619854440,"moon_phase":0.67,"temp":{"day":51.89,"min":40.64,"max":52.45,"night":44.22,"eve":48.81,"morn":41},"feels_like":{"day":49.14,"night":37.72,"eve":46.27,"morn":37.72},"pressure":1013,"humidity":50,"dew_point":33.96,"wind_speed":8.08,"wind_deg":33,"wind_gust":14.47,"weather":[{"id":500,"main":"Rain","description":"light
        rain","icon":"10d"}],"clouds":42,"pop":0.74,"rain":2.21,"uvi":4.79},{"dt":1619953200,"sunrise":1619929812,"sunset":1619983476,"moonrise":1619917980,"moonset":1619944860,"moon_phase":0.7,"temp":{"day":55.98,"min":38.79,"max":57.15,"night":46.98,"eve":51.21,"morn":39.78},"feels_like":{"day":53.01,"night":36.28,"eve":49.46,"morn":36.28},"pressure":1015,"humidity":37,"dew_point":30.02,"wind_speed":6.35,"wind_deg":243,"wind_gust":15.77,"weather":[{"id":500,"main":"Rain","description":"light
        rain","icon":"10d"}],"clouds":6,"pop":0.86,"rain":2.42,"uvi":5},{"dt":1620039600,"sunrise":1620016102,"sunset":1620069974,"moonrise":1620007020,"moonset":1620035700,"moon_phase":0.75,"temp":{"day":54.77,"min":41.31,"max":54.77,"night":44.85,"eve":47.46,"morn":42.37},"feels_like":{"day":52.3,"night":39.02,"eve":41.77,"morn":39.02},"pressure":1013,"humidity":50,"dew_point":36.72,"wind_speed":13.58,"wind_deg":243,"wind_gust":21.03,"weather":[{"id":500,"main":"Rain","description":"light
        rain","icon":"10d"}],"clouds":100,"pop":1,"rain":5.7,"uvi":5},{"dt":1620126000,"sunrise":1620102394,"sunset":1620156473,"moonrise":1620095280,"moonset":1620126660,"moon_phase":0.77,"temp":{"day":53.35,"min":41.72,"max":53.35,"night":49.55,"eve":53.06,"morn":42.87},"feels_like":{"day":51.44,"night":40.35,"eve":51.22,"morn":40.35},"pressure":1014,"humidity":65,"dew_point":41.88,"wind_speed":8.01,"wind_deg":246,"wind_gust":25.39,"weather":[{"id":804,"main":"Clouds","description":"overcast
        clouds","icon":"04d"}],"clouds":99,"pop":0.58,"uvi":5}]}'
  recorded_at: Tue, 27 Apr 2021 16:11:35 GMT
- request:
    method: get
    uri: https://api.flickr.com/services/rest?api_key=420dff41e4312b17f82310895dca8123&extras=url_c&format=json&method=flickr.photos.search&nojsoncallback=1&per_page=1&text=London%20UK%20evening%20overcast%20clouds
    body:
      encoding: US-ASCII
      string: ''
    headers:
      User-Agent:
      - Faraday v1.4.1
      Accept-Encoding:
      - gzip;q=1.0,deflate;q=0.6,identity;q=0.3
      Accept:
      - "*/*"
  response:
    status:
      code: 200
      message: OK
    headers:
      Content-Type:
      - application/json
      Content-Length:
      - '354'
      Connection:
      - keep-alive
      Date:
      - Tue, 27 Apr 2021 16:11:35 GMT
      Server:
      - Apache/2.4.46 (Ubuntu)
      Set-Cookie:
      - ccc=%7B%22needsConsent%22%3Afalse%2C%22managed%22%3A0%2C%22changed%22%3A0%2C%22info%22%3A%7B%22cookieBlock%22%3A%7B%22level%22%3A0%2C%22blockRan%22%3A0%7D%7D%7D;
        expires=Thu, 27-May-2021 16:11:35 GMT; Max-Age=2592000; path=/; domain=.flickr.com
      X-Content-Type-Options:
      - nosniff
      X-Frame-Options:
      - SAMEORIGIN
      X-Cache:
      - Miss from cloudfront
      Via:
      - 1.1 dcccf6c408219d8b851fcd12a0068cea.cloudfront.net (CloudFront)
      X-Amz-Cf-Pop:
      - MIA3-C3
      X-Amz-Cf-Id:
      - 5qvRvFH-z4s9bA_Iqbqo44euXguqfm4m4OHLsVO42hue76295ownOg==
    body:
      encoding: UTF-8
      string: '{"photos":{"page":1,"pages":10,"perpage":1,"total":"10","photo":[{"id":"50875489462","owner":"39944805@N00","secret":"a4d7f9ac49","server":"65535","farm":66,"title":"12\/365
        - Morning, swans","ispublic":1,"isfriend":0,"isfamily":0,"url_c":"https:\/\/live.staticflickr.com\/65535\/50875489462_a4d7f9ac49_c.jpg","height_c":533,"width_c":800}]},"stat":"ok"}'
  recorded_at: Tue, 27 Apr 2021 16:11:35 GMT
recorded_with: VCR 6.0.0
