---
http_interactions:
- request:
    method: get
    uri: https://api.openweathermap.org/data/2.5/onecall?appid=DONT_LOOK_AGAIN&exclude=alerts,minutely&lat=27.947423&lon=-82.458776&units=imperial
    body:
      encoding: US-ASCII
      string: ''
    headers:
      User-Agent:
      - Faraday v1.4.1
      Accept-Encoding:
      - gzip;q=1.0,deflate;q=0.6,identity;q=0.3
      Accept:
      - "*/*"
  response:
    status:
      code: 200
      message: OK
    headers:
      Server:
      - openresty
      Date:
      - Fri, 07 May 2021 00:30:55 GMT
      Content-Type:
      - application/json; charset=utf-8
      Content-Length:
      - '17554'
      Connection:
      - keep-alive
      X-Cache-Key:
      - "/data/2.5/onecall?exclude=alerts%2Cminutely&lat=27.95&lon=-82.46&units=imperial"
      Access-Control-Allow-Origin:
      - "*"
      Access-Control-Allow-Credentials:
      - 'true'
      Access-Control-Allow-Methods:
      - GET, POST
    body:
      encoding: UTF-8
      string: '{"lat":27.9474,"lon":-82.4588,"timezone":"America/New_York","timezone_offset":-14400,"current":{"dt":1620347450,"sunrise":1620297953,"sunset":1620346015,"temp":79.97,"feels_like":79.97,"pressure":1016,"humidity":74,"dew_point":70.93,"uvi":0,"clouds":90,"visibility":10000,"wind_speed":5.75,"wind_deg":310,"weather":[{"id":804,"main":"Clouds","description":"overcast
        clouds","icon":"04n"}]},"hourly":[{"dt":1620345600,"temp":80.2,"feels_like":83.41,"pressure":1016,"humidity":71,"dew_point":69.94,"uvi":0,"clouds":79,"visibility":10000,"wind_speed":10.54,"wind_deg":285,"wind_gust":13.89,"weather":[{"id":803,"main":"Clouds","description":"broken
        clouds","icon":"04d"}],"pop":0.12},{"dt":1620349200,"temp":79.97,"feels_like":79.97,"pressure":1016,"humidity":74,"dew_point":70.93,"uvi":0,"clouds":90,"visibility":10000,"wind_speed":9.82,"wind_deg":298,"wind_gust":13.56,"weather":[{"id":804,"main":"Clouds","description":"overcast
        clouds","icon":"04n"}],"pop":0},{"dt":1620352800,"temp":79.63,"feels_like":79.63,"pressure":1016,"humidity":73,"dew_point":70.21,"uvi":0,"clouds":90,"visibility":10000,"wind_speed":10.38,"wind_deg":321,"wind_gust":14.41,"weather":[{"id":804,"main":"Clouds","description":"overcast
        clouds","icon":"04n"}],"pop":0},{"dt":1620356400,"temp":78.84,"feels_like":78.84,"pressure":1016,"humidity":72,"dew_point":69.04,"uvi":0,"clouds":84,"visibility":10000,"wind_speed":8.77,"wind_deg":335,"wind_gust":12.88,"weather":[{"id":803,"main":"Clouds","description":"broken
        clouds","icon":"04n"}],"pop":0},{"dt":1620360000,"temp":78.15,"feels_like":79,"pressure":1017,"humidity":71,"dew_point":67.98,"uvi":0,"clouds":83,"visibility":10000,"wind_speed":9.73,"wind_deg":317,"wind_gust":15.14,"weather":[{"id":803,"main":"Clouds","description":"broken
        clouds","icon":"04n"}],"pop":0},{"dt":1620363600,"temp":77.56,"feels_like":78.26,"pressure":1016,"humidity":69,"dew_point":66.6,"uvi":0,"clouds":84,"visibility":10000,"wind_speed":10.71,"wind_deg":308,"wind_gust":16.89,"weather":[{"id":803,"main":"Clouds","description":"broken
        clouds","icon":"04n"}],"pop":0},{"dt":1620367200,"temp":76.24,"feels_like":76.91,"pressure":1016,"humidity":71,"dew_point":66.4,"uvi":0,"clouds":85,"visibility":10000,"wind_speed":10.96,"wind_deg":307,"wind_gust":16.28,"weather":[{"id":804,"main":"Clouds","description":"overcast
        clouds","icon":"04n"}],"pop":0},{"dt":1620370800,"temp":75.25,"feels_like":76.1,"pressure":1015,"humidity":77,"dew_point":67.59,"uvi":0,"clouds":100,"visibility":10000,"wind_speed":10.63,"wind_deg":310,"wind_gust":15.73,"weather":[{"id":804,"main":"Clouds","description":"overcast
        clouds","icon":"04n"}],"pop":0.26},{"dt":1620374400,"temp":74.59,"feels_like":75.36,"pressure":1015,"humidity":77,"dew_point":67.05,"uvi":0,"clouds":98,"visibility":10000,"wind_speed":9.71,"wind_deg":317,"wind_gust":14.54,"weather":[{"id":500,"main":"Rain","description":"light
        rain","icon":"10n"}],"pop":0.39,"rain":{"1h":0.16}},{"dt":1620378000,"temp":73.85,"feels_like":74.61,"pressure":1015,"humidity":78,"dew_point":66.56,"uvi":0,"clouds":66,"visibility":10000,"wind_speed":9.73,"wind_deg":340,"wind_gust":15.75,"weather":[{"id":500,"main":"Rain","description":"light
        rain","icon":"10n"}],"pop":0.35,"rain":{"1h":0.19}},{"dt":1620381600,"temp":72.05,"feels_like":72.66,"pressure":1016,"humidity":79,"dew_point":65.21,"uvi":0,"clouds":50,"visibility":10000,"wind_speed":11.32,"wind_deg":358,"wind_gust":17.49,"weather":[{"id":802,"main":"Clouds","description":"scattered
        clouds","icon":"03n"}],"pop":0.19},{"dt":1620385200,"temp":71.02,"feels_like":70.93,"pressure":1016,"humidity":66,"dew_point":59.36,"uvi":0,"clouds":40,"visibility":10000,"wind_speed":10.96,"wind_deg":357,"wind_gust":18.81,"weather":[{"id":802,"main":"Clouds","description":"scattered
        clouds","icon":"03d"}],"pop":0.16},{"dt":1620388800,"temp":71.78,"feels_like":71.24,"pressure":1017,"humidity":55,"dew_point":55.13,"uvi":0.46,"clouds":33,"visibility":10000,"wind_speed":11.3,"wind_deg":356,"wind_gust":17.92,"weather":[{"id":802,"main":"Clouds","description":"scattered
        clouds","icon":"03d"}],"pop":0.16},{"dt":1620392400,"temp":73.9,"feels_like":73.2,"pressure":1018,"humidity":47,"dew_point":52.54,"uvi":1.69,"clouds":0,"visibility":10000,"wind_speed":12.62,"wind_deg":352,"wind_gust":16.69,"weather":[{"id":800,"main":"Clear","description":"clear
        sky","icon":"01d"}],"pop":0},{"dt":1620396000,"temp":76.69,"feels_like":75.9,"pressure":1018,"humidity":39,"dew_point":50.16,"uvi":3.86,"clouds":0,"visibility":10000,"wind_speed":12.39,"wind_deg":346,"wind_gust":14.94,"weather":[{"id":800,"main":"Clear","description":"clear
        sky","icon":"01d"}],"pop":0},{"dt":1620399600,"temp":78.8,"feels_like":78.8,"pressure":1018,"humidity":34,"dew_point":48.09,"uvi":6.6,"clouds":0,"visibility":10000,"wind_speed":12.84,"wind_deg":338,"wind_gust":14.5,"weather":[{"id":800,"main":"Clear","description":"clear
        sky","icon":"01d"}],"pop":0},{"dt":1620403200,"temp":80.24,"feels_like":79.47,"pressure":1018,"humidity":32,"dew_point":47.98,"uvi":8.98,"clouds":0,"visibility":10000,"wind_speed":14.41,"wind_deg":326,"wind_gust":15.37,"weather":[{"id":800,"main":"Clear","description":"clear
        sky","icon":"01d"}],"pop":0},{"dt":1620406800,"temp":80.6,"feels_like":79.84,"pressure":1017,"humidity":34,"dew_point":49.62,"uvi":10.46,"clouds":0,"visibility":10000,"wind_speed":15.75,"wind_deg":319,"wind_gust":16.73,"weather":[{"id":800,"main":"Clear","description":"clear
        sky","icon":"01d"}],"pop":0},{"dt":1620410400,"temp":80.91,"feels_like":80.06,"pressure":1017,"humidity":34,"dew_point":50.04,"uvi":10.46,"clouds":0,"visibility":10000,"wind_speed":16.55,"wind_deg":314,"wind_gust":18.03,"weather":[{"id":800,"main":"Clear","description":"clear
        sky","icon":"01d"}],"pop":0},{"dt":1620414000,"temp":80.46,"feels_like":79.75,"pressure":1016,"humidity":34,"dew_point":49.75,"uvi":8.86,"clouds":0,"visibility":10000,"wind_speed":17.25,"wind_deg":313,"wind_gust":18.32,"weather":[{"id":800,"main":"Clear","description":"clear
        sky","icon":"01d"}],"pop":0},{"dt":1620417600,"temp":79.56,"feels_like":79.56,"pressure":1016,"humidity":35,"dew_point":49.32,"uvi":6.41,"clouds":0,"visibility":10000,"wind_speed":17.85,"wind_deg":309,"wind_gust":19.57,"weather":[{"id":800,"main":"Clear","description":"clear
        sky","icon":"01d"}],"pop":0},{"dt":1620421200,"temp":78.58,"feels_like":77.79,"pressure":1016,"humidity":35,"dew_point":48.67,"uvi":3.75,"clouds":0,"visibility":10000,"wind_speed":17.74,"wind_deg":310,"wind_gust":20.07,"weather":[{"id":800,"main":"Clear","description":"clear
        sky","icon":"01d"}],"pop":0},{"dt":1620424800,"temp":77.27,"feels_like":76.39,"pressure":1016,"humidity":36,"dew_point":48.79,"uvi":1.66,"clouds":0,"visibility":10000,"wind_speed":17.2,"wind_deg":310,"wind_gust":19.19,"weather":[{"id":800,"main":"Clear","description":"clear
        sky","icon":"01d"}],"pop":0},{"dt":1620428400,"temp":76.28,"feels_like":75.4,"pressure":1016,"humidity":38,"dew_point":49.05,"uvi":0.45,"clouds":0,"visibility":10000,"wind_speed":15.77,"wind_deg":315,"wind_gust":17.87,"weather":[{"id":800,"main":"Clear","description":"clear
        sky","icon":"01d"}],"pop":0},{"dt":1620432000,"temp":74.55,"feels_like":73.49,"pressure":1017,"humidity":38,"dew_point":47.44,"uvi":0,"clouds":0,"visibility":10000,"wind_speed":14.38,"wind_deg":320,"wind_gust":19.26,"weather":[{"id":800,"main":"Clear","description":"clear
        sky","icon":"01d"}],"pop":0},{"dt":1620435600,"temp":73.63,"feels_like":72.39,"pressure":1017,"humidity":36,"dew_point":45.61,"uvi":0,"clouds":0,"visibility":10000,"wind_speed":13,"wind_deg":325,"wind_gust":19.84,"weather":[{"id":800,"main":"Clear","description":"clear
        sky","icon":"01n"}],"pop":0},{"dt":1620439200,"temp":73.06,"feels_like":71.76,"pressure":1017,"humidity":36,"dew_point":45,"uvi":0,"clouds":0,"visibility":10000,"wind_speed":12.26,"wind_deg":332,"wind_gust":20.89,"weather":[{"id":800,"main":"Clear","description":"clear
        sky","icon":"01n"}],"pop":0},{"dt":1620442800,"temp":72.21,"feels_like":70.88,"pressure":1018,"humidity":37,"dew_point":44.6,"uvi":0,"clouds":0,"visibility":10000,"wind_speed":11.79,"wind_deg":355,"wind_gust":21.54,"weather":[{"id":800,"main":"Clear","description":"clear
        sky","icon":"01n"}],"pop":0},{"dt":1620446400,"temp":70.03,"feels_like":68.29,"pressure":1018,"humidity":33,"dew_point":40.14,"uvi":0,"clouds":0,"visibility":10000,"wind_speed":14.38,"wind_deg":9,"wind_gust":24.4,"weather":[{"id":800,"main":"Clear","description":"clear
        sky","icon":"01n"}],"pop":0},{"dt":1620450000,"temp":67.69,"feels_like":65.77,"pressure":1019,"humidity":34,"dew_point":39.09,"uvi":0,"clouds":0,"visibility":10000,"wind_speed":13.62,"wind_deg":8,"wind_gust":25.3,"weather":[{"id":800,"main":"Clear","description":"clear
        sky","icon":"01n"}],"pop":0},{"dt":1620453600,"temp":65.91,"feels_like":63.9,"pressure":1018,"humidity":36,"dew_point":38.71,"uvi":0,"clouds":0,"visibility":10000,"wind_speed":13.04,"wind_deg":13,"wind_gust":24.79,"weather":[{"id":800,"main":"Clear","description":"clear
        sky","icon":"01n"}],"pop":0},{"dt":1620457200,"temp":64.31,"feels_like":62.28,"pressure":1018,"humidity":39,"dew_point":38.89,"uvi":0,"clouds":0,"visibility":10000,"wind_speed":12.5,"wind_deg":21,"wind_gust":24.43,"weather":[{"id":800,"main":"Clear","description":"clear
        sky","icon":"01n"}],"pop":0},{"dt":1620460800,"temp":63.01,"feels_like":60.89,"pressure":1018,"humidity":40,"dew_point":38.97,"uvi":0,"clouds":0,"visibility":10000,"wind_speed":11.61,"wind_deg":29,"wind_gust":24.16,"weather":[{"id":800,"main":"Clear","description":"clear
        sky","icon":"01n"}],"pop":0},{"dt":1620464400,"temp":62.15,"feels_like":59.99,"pressure":1018,"humidity":41,"dew_point":38.57,"uvi":0,"clouds":2,"visibility":10000,"wind_speed":10.96,"wind_deg":33,"wind_gust":22.44,"weather":[{"id":800,"main":"Clear","description":"clear
        sky","icon":"01n"}],"pop":0},{"dt":1620468000,"temp":61.47,"feels_like":59.29,"pressure":1019,"humidity":42,"dew_point":38.52,"uvi":0,"clouds":3,"visibility":10000,"wind_speed":10.49,"wind_deg":37,"wind_gust":20.83,"weather":[{"id":800,"main":"Clear","description":"clear
        sky","icon":"01n"}],"pop":0},{"dt":1620471600,"temp":61.09,"feels_like":58.87,"pressure":1019,"humidity":42,"dew_point":38.32,"uvi":0,"clouds":4,"visibility":10000,"wind_speed":10.29,"wind_deg":30,"wind_gust":19.73,"weather":[{"id":800,"main":"Clear","description":"clear
        sky","icon":"01d"}],"pop":0},{"dt":1620475200,"temp":63.01,"feels_like":60.94,"pressure":1020,"humidity":41,"dew_point":39.16,"uvi":0.45,"clouds":4,"visibility":10000,"wind_speed":11.52,"wind_deg":31,"wind_gust":19.66,"weather":[{"id":800,"main":"Clear","description":"clear
        sky","icon":"01d"}],"pop":0},{"dt":1620478800,"temp":67.28,"feels_like":65.35,"pressure":1021,"humidity":35,"dew_point":38.61,"uvi":1.65,"clouds":5,"visibility":10000,"wind_speed":12.44,"wind_deg":32,"wind_gust":16.87,"weather":[{"id":800,"main":"Clear","description":"clear
        sky","icon":"01d"}],"pop":0},{"dt":1620482400,"temp":71.38,"feels_like":69.58,"pressure":1021,"humidity":29,"dew_point":37.76,"uvi":3.74,"clouds":3,"visibility":10000,"wind_speed":12.39,"wind_deg":30,"wind_gust":13.38,"weather":[{"id":800,"main":"Clear","description":"clear
        sky","icon":"01d"}],"pop":0},{"dt":1620486000,"temp":74.71,"feels_like":73.06,"pressure":1021,"humidity":25,"dew_point":37,"uvi":6.37,"clouds":2,"visibility":10000,"wind_speed":9.78,"wind_deg":39,"wind_gust":9.64,"weather":[{"id":800,"main":"Clear","description":"clear
        sky","icon":"01d"}],"pop":0},{"dt":1620489600,"temp":77.43,"feels_like":75.96,"pressure":1020,"humidity":23,"dew_point":37.42,"uvi":8.91,"clouds":2,"visibility":10000,"wind_speed":7.74,"wind_deg":46,"wind_gust":7.36,"weather":[{"id":800,"main":"Clear","description":"clear
        sky","icon":"01d"}],"pop":0},{"dt":1620493200,"temp":79.84,"feels_like":79.84,"pressure":1020,"humidity":21,"dew_point":37.44,"uvi":10.38,"clouds":1,"visibility":10000,"wind_speed":5.66,"wind_deg":48,"wind_gust":5.91,"weather":[{"id":800,"main":"Clear","description":"clear
        sky","icon":"01d"}],"pop":0},{"dt":1620496800,"temp":81.97,"feels_like":79.81,"pressure":1019,"humidity":19,"dew_point":36.68,"uvi":10.38,"clouds":1,"visibility":10000,"wind_speed":4.65,"wind_deg":39,"wind_gust":6.38,"weather":[{"id":800,"main":"Clear","description":"clear
        sky","icon":"01d"}],"pop":0},{"dt":1620500400,"temp":83.53,"feels_like":80.85,"pressure":1018,"humidity":18,"dew_point":36.18,"uvi":8.96,"clouds":1,"visibility":10000,"wind_speed":4.7,"wind_deg":50,"wind_gust":7,"weather":[{"id":800,"main":"Clear","description":"clear
        sky","icon":"01d"}],"pop":0},{"dt":1620504000,"temp":84.76,"feels_like":81.77,"pressure":1017,"humidity":18,"dew_point":36.3,"uvi":6.49,"clouds":3,"visibility":10000,"wind_speed":4.81,"wind_deg":63,"wind_gust":7.43,"weather":[{"id":800,"main":"Clear","description":"clear
        sky","icon":"01d"}],"pop":0},{"dt":1620507600,"temp":85.33,"feels_like":82.22,"pressure":1017,"humidity":18,"dew_point":36.86,"uvi":3.81,"clouds":8,"visibility":10000,"wind_speed":5.32,"wind_deg":70,"wind_gust":7.63,"weather":[{"id":800,"main":"Clear","description":"clear
        sky","icon":"01d"}],"pop":0},{"dt":1620511200,"temp":85.44,"feels_like":82.33,"pressure":1017,"humidity":19,"dew_point":38.46,"uvi":1.69,"clouds":9,"visibility":10000,"wind_speed":5.61,"wind_deg":61,"wind_gust":7.65,"weather":[{"id":800,"main":"Clear","description":"clear
        sky","icon":"01d"}],"pop":0},{"dt":1620514800,"temp":84.24,"feels_like":81.63,"pressure":1017,"humidity":23,"dew_point":42.46,"uvi":0.46,"clouds":10,"visibility":10000,"wind_speed":6.06,"wind_deg":49,"wind_gust":8.68,"weather":[{"id":800,"main":"Clear","description":"clear
        sky","icon":"01d"}],"pop":0}],"daily":[{"dt":1620320400,"sunrise":1620297953,"sunset":1620346015,"moonrise":1620288660,"moonset":1620330660,"moon_phase":0.84,"temp":{"day":87.58,"min":76.68,"max":87.6,"night":78.84,"eve":80.98,"morn":76.68},"feels_like":{"day":90.01,"night":77.76,"eve":84.09,"morn":77.76},"pressure":1017,"humidity":49,"dew_point":66.24,"wind_speed":15.79,"wind_deg":286,"wind_gust":17.69,"weather":[{"id":501,"main":"Rain","description":"moderate
        rain","icon":"10d"}],"clouds":0,"pop":0.98,"rain":4.95,"uvi":11.14},{"dt":1620406800,"sunrise":1620384311,"sunset":1620432452,"moonrise":1620376920,"moonset":1620420240,"moon_phase":0.87,"temp":{"day":80.6,"min":71.02,"max":80.91,"night":72.21,"eve":76.28,"morn":71.02},"feels_like":{"day":79.84,"night":70.93,"eve":75.4,"morn":70.93},"pressure":1017,"humidity":34,"dew_point":49.62,"wind_speed":17.85,"wind_deg":309,"wind_gust":21.54,"weather":[{"id":500,"main":"Rain","description":"light
        rain","icon":"10d"}],"clouds":0,"pop":0.39,"rain":0.35,"uvi":10.46},{"dt":1620493200,"sunrise":1620470670,"sunset":1620518888,"moonrise":1620465060,"moonset":1620509820,"moon_phase":0.9,"temp":{"day":79.84,"min":61.09,"max":85.44,"night":71.56,"eve":84.24,"morn":61.09},"feels_like":{"day":79.84,"night":58.87,"eve":81.63,"morn":58.87},"pressure":1020,"humidity":21,"dew_point":37.44,"wind_speed":16.02,"wind_deg":92,"wind_gust":25.3,"weather":[{"id":800,"main":"Clear","description":"clear
        sky","icon":"01d"}],"clouds":1,"pop":0,"uvi":10.38},{"dt":1620579600,"sunrise":1620557029,"sunset":1620605324,"moonrise":1620553260,"moonset":1620599280,"moon_phase":0.94,"temp":{"day":89.33,"min":67.08,"max":89.33,"night":76.71,"eve":81.77,"morn":67.08},"feels_like":{"day":87.82,"night":66.87,"eve":83.59,"morn":66.87},"pressure":1018,"humidity":33,"dew_point":56.17,"wind_speed":13.62,"wind_deg":101,"wind_gust":24.52,"weather":[{"id":500,"main":"Rain","description":"light
        rain","icon":"10d"}],"clouds":0,"pop":0.55,"rain":0.36,"uvi":10.75},{"dt":1620666000,"sunrise":1620643390,"sunset":1620691761,"moonrise":1620641400,"moonset":1620688860,"moon_phase":0.97,"temp":{"day":88.43,"min":73.69,"max":88.43,"night":78.26,"eve":82.2,"morn":75.4},"feels_like":{"day":90.68,"night":76.41,"eve":84.92,"morn":76.41},"pressure":1017,"humidity":47,"dew_point":65.57,"wind_speed":15.75,"wind_deg":235,"wind_gust":21,"weather":[{"id":500,"main":"Rain","description":"light
        rain","icon":"10d"}],"clouds":51,"pop":0.48,"rain":0.27,"uvi":11.5},{"dt":1620752400,"sunrise":1620729752,"sunset":1620778197,"moonrise":1620729660,"moonset":1620778500,"moon_phase":0,"temp":{"day":88.56,"min":75.34,"max":90.73,"night":79.75,"eve":83.37,"morn":76.51},"feels_like":{"day":90.19,"night":77.43,"eve":85.8,"morn":77.43},"pressure":1018,"humidity":45,"dew_point":63.73,"wind_speed":10.63,"wind_deg":270,"wind_gust":10.87,"weather":[{"id":803,"main":"Clouds","description":"broken
        clouds","icon":"04d"}],"clouds":80,"pop":0.17,"uvi":0.5},{"dt":1620838800,"sunrise":1620816116,"sunset":1620864633,"moonrise":1620818160,"moonset":1620868140,"moon_phase":0.03,"temp":{"day":88.84,"min":77.54,"max":88.84,"night":79.29,"eve":83.34,"morn":78.49},"feels_like":{"day":92.1,"night":79.2,"eve":86.45,"morn":79.2},"pressure":1018,"humidity":49,"dew_point":66.96,"wind_speed":13.76,"wind_deg":267,"wind_gust":11.59,"weather":[{"id":500,"main":"Rain","description":"light
        rain","icon":"10d"}],"clouds":52,"pop":0.36,"rain":0.1,"uvi":1},{"dt":1620925200,"sunrise":1620902480,"sunset":1620951070,"moonrise":1620906840,"moonset":1620957840,"moon_phase":0.06,"temp":{"day":88.52,"min":75.65,"max":88.52,"night":78.46,"eve":81.48,"morn":77.72},"feels_like":{"day":89.49,"night":78.76,"eve":83.08,"morn":78.76},"pressure":1018,"humidity":43,"dew_point":63.01,"wind_speed":12.48,"wind_deg":278,"wind_gust":15.03,"weather":[{"id":500,"main":"Rain","description":"light
        rain","icon":"10d"}],"clouds":88,"pop":0.31,"rain":0.38,"uvi":1}]}'
  recorded_at: Fri, 07 May 2021 00:30:55 GMT
- request:
    method: get
    uri: https://api.flickr.com/services/rest?api_key=DONT_LOOK_AT_ALL&extras=url_c&format=json&method=flickr.photos.search&nojsoncallback=1&per_page=1&text=Tampa%20FL%20morning%20overcast%20clouds
    body:
      encoding: US-ASCII
      string: ''
    headers:
      User-Agent:
      - Faraday v1.4.1
      Accept-Encoding:
      - gzip;q=1.0,deflate;q=0.6,identity;q=0.3
      Accept:
      - "*/*"
  response:
    status:
      code: 200
      message: OK
    headers:
      Content-Type:
      - application/json
      Content-Length:
      - '346'
      Connection:
      - keep-alive
      Date:
      - Fri, 07 May 2021 00:30:55 GMT
      Server:
      - Apache/2.4.46 (Ubuntu)
      Set-Cookie:
      - ccc=%7B%22needsConsent%22%3Afalse%2C%22managed%22%3A0%2C%22changed%22%3A0%2C%22info%22%3A%7B%22cookieBlock%22%3A%7B%22level%22%3A0%2C%22blockRan%22%3A0%7D%7D%7D;
        expires=Sun, 06-Jun-2021 00:30:55 GMT; Max-Age=2592000; path=/; domain=.flickr.com
      X-Content-Type-Options:
      - nosniff
      X-Frame-Options:
      - SAMEORIGIN
      X-Cache:
      - Miss from cloudfront
      Via:
      - 1.1 aeb4230d4287e12c8862574307ac71a3.cloudfront.net (CloudFront)
      X-Amz-Cf-Pop:
      - MIA3-C2
      X-Amz-Cf-Id:
      - hjjf-UvdeWOepWC5r_Fl8P6hVu2m7xysXfsDRj59jgRlHwQViuppyA==
    body:
      encoding: UTF-8
      string: '{"photos":{"page":1,"pages":2,"perpage":1,"total":"2","photo":[{"id":"8588243977","owner":"27531711@N08","secret":"3fc1ee9834","server":"8381","farm":9,"title":"Washington
        Oaks Coquina","ispublic":1,"isfriend":0,"isfamily":0,"url_c":"https:\/\/live.staticflickr.com\/8381\/8588243977_3fc1ee9834_c.jpg","height_c":800,"width_c":534}]},"stat":"ok"}'
  recorded_at: Fri, 07 May 2021 00:30:55 GMT
recorded_with: VCR 6.0.0
