---
http_interactions:
- request:
    method: get
    uri: http://www.mapquestapi.com/geocoding/v1/address?key=DONT_LOOK&location=pittsburgh,pa
    body:
      encoding: US-ASCII
      string: ''
    headers:
      User-Agent:
      - Faraday v1.4.1
      Accept-Encoding:
      - gzip;q=1.0,deflate;q=0.6,identity;q=0.3
      Accept:
      - "*/*"
  response:
    status:
      code: 200
      message: OK
    headers:
      Date:
      - Sun, 25 Apr 2021 01:37:01 GMT
      Content-Type:
      - application/json;charset=UTF-8
      Content-Length:
      - '1039'
      Access-Control-Allow-Methods:
      - OPTIONS,GET,POST
      Access-Control-Allow-Origin:
      - "*"
      Cache-Control:
      - no-cache, must-revalidate
      Expires:
      - Mon, 20 Dec 1998 01:00:00 GMT
      Geocodetransactioncount:
      - '1'
      Last-Modified:
      - Sun, 25 Apr 2021 01:37:01 GMT
      Pragma:
      - no-cache
      Reversegeocodetransactioncount:
      - '0'
      Server:
      - Apache-Coyote/1.1
      Set-Cookie:
      - JSESSIONID=1C520480E40B02A97E48F77819B77960; Path=/; HttpOnly
      Status:
      - success
      Transactionweight:
      - '1.0'
    body:
      encoding: UTF-8
      string: '{"info":{"statuscode":0,"copyright":{"text":"\u00A9 2021 MapQuest,
        Inc.","imageUrl":"http://api.mqcdn.com/res/mqlogo.gif","imageAltText":"\u00A9
        2021 MapQuest, Inc."},"messages":[]},"options":{"maxResults":-1,"thumbMaps":true,"ignoreLatLngInput":false},"results":[{"providedLocation":{"location":"pittsburgh,pa"},"locations":[{"street":"","adminArea6":"","adminArea6Type":"Neighborhood","adminArea5":"Pittsburgh","adminArea5Type":"City","adminArea4":"Allegheny
        County","adminArea4Type":"County","adminArea3":"PA","adminArea3Type":"State","adminArea1":"US","adminArea1Type":"Country","postalCode":"","geocodeQualityCode":"A5XAX","geocodeQuality":"CITY","dragPoint":false,"sideOfStreet":"N","linkId":"282039780","unknownInput":"","type":"s","latLng":{"lat":40.442169,"lng":-79.994945},"displayLatLng":{"lat":40.442169,"lng":-79.994945},"mapUrl":"http://www.mapquestapi.com/staticmap/v5/map?key=DONT_LOOK&type=map&size=225,160&locations=40.442169,-79.994945|marker-sm-50318A-1&scalebar=true&zoom=12&rand=883009656"}]}]}'
  recorded_at: Sun, 25 Apr 2021 01:37:01 GMT
- request:
    method: get
    uri: https://api.openweathermap.org/data/2.5/onecall?appid=DONT_LOOK_AGAIN&lat=40.442169&lon=-79.994945&units=imperial
    body:
      encoding: US-ASCII
      string: ''
    headers:
      User-Agent:
      - Faraday v1.4.1
      Accept-Encoding:
      - gzip;q=1.0,deflate;q=0.6,identity;q=0.3
      Accept:
      - "*/*"
  response:
    status:
      code: 200
      message: OK
    headers:
      Server:
      - openresty
      Date:
      - Sun, 25 Apr 2021 01:37:01 GMT
      Content-Type:
      - application/json; charset=utf-8
      Content-Length:
      - '20421'
      Connection:
      - keep-alive
      X-Cache-Key:
      - "/data/2.5/onecall?lat=40.44&lon=-79.99&units=imperial"
      Access-Control-Allow-Origin:
      - "*"
      Access-Control-Allow-Credentials:
      - 'true'
      Access-Control-Allow-Methods:
      - GET, POST
    body:
      encoding: UTF-8
      string: '{"lat":40.4422,"lon":-79.9949,"timezone":"America/New_York","timezone_offset":-14400,"current":{"dt":1619314621,"sunrise":1619260074,"sunset":1619309272,"temp":48.6,"feels_like":45.54,"pressure":1009,"humidity":87,"dew_point":44.91,"uvi":0,"clouds":90,"visibility":9656,"wind_speed":6.91,"wind_deg":100,"weather":[{"id":501,"main":"Rain","description":"moderate
        rain","icon":"10n"},{"id":701,"main":"Mist","description":"mist","icon":"50n"}],"rain":{"1h":1.63}},"minutely":[{"dt":1619314680,"precipitation":1.6808},{"dt":1619314740,"precipitation":1.7284},{"dt":1619314800,"precipitation":1.776},{"dt":1619314860,"precipitation":1.8308},{"dt":1619314920,"precipitation":1.8856},{"dt":1619314980,"precipitation":1.9404},{"dt":1619315040,"precipitation":1.9952},{"dt":1619315100,"precipitation":2.05},{"dt":1619315160,"precipitation":1.9952},{"dt":1619315220,"precipitation":1.9404},{"dt":1619315280,"precipitation":1.8856},{"dt":1619315340,"precipitation":1.8308},{"dt":1619315400,"precipitation":1.776},{"dt":1619315460,"precipitation":1.8308},{"dt":1619315520,"precipitation":1.8856},{"dt":1619315580,"precipitation":1.9404},{"dt":1619315640,"precipitation":1.9952},{"dt":1619315700,"precipitation":2.05},{"dt":1619315760,"precipitation":1.9476},{"dt":1619315820,"precipitation":1.8452},{"dt":1619315880,"precipitation":1.7428},{"dt":1619315940,"precipitation":1.6404},{"dt":1619316000,"precipitation":1.538},{"dt":1619316060,"precipitation":1.461},{"dt":1619316120,"precipitation":1.384},{"dt":1619316180,"precipitation":1.307},{"dt":1619316240,"precipitation":1.23},{"dt":1619316300,"precipitation":1.153},{"dt":1619316360,"precipitation":1.1222},{"dt":1619316420,"precipitation":1.0914},{"dt":1619316480,"precipitation":1.0606},{"dt":1619316540,"precipitation":1.0298},{"dt":1619316600,"precipitation":0.999},{"dt":1619316660,"precipitation":1.0298},{"dt":1619316720,"precipitation":1.0606},{"dt":1619316780,"precipitation":1.0914},{"dt":1619316840,"precipitation":1.1222},{"dt":1619316900,"precipitation":1.153},{"dt":1619316960,"precipitation":1.1888},{"dt":1619317020,"precipitation":1.2246},{"dt":1619317080,"precipitation":1.2604},{"dt":1619317140,"precipitation":1.2962},{"dt":1619317200,"precipitation":1.332},{"dt":1619317260,"precipitation":1.332},{"dt":1619317320,"precipitation":1.332},{"dt":1619317380,"precipitation":1.332},{"dt":1619317440,"precipitation":1.332},{"dt":1619317500,"precipitation":1.332},{"dt":1619317560,"precipitation":1.3732},{"dt":1619317620,"precipitation":1.4144},{"dt":1619317680,"precipitation":1.4556},{"dt":1619317740,"precipitation":1.4968},{"dt":1619317800,"precipitation":1.538},{"dt":1619317860,"precipitation":1.538},{"dt":1619317920,"precipitation":1.538},{"dt":1619317980,"precipitation":1.538},{"dt":1619318040,"precipitation":1.538},{"dt":1619318100,"precipitation":1.538},{"dt":1619318160,"precipitation":1.4968},{"dt":1619318220,"precipitation":1.4556},{"dt":1619318280,"precipitation":1.4144}],"hourly":[{"dt":1619312400,"temp":48.9,"feels_like":48.42,"pressure":1009,"humidity":89,"dew_point":45.81,"uvi":0,"clouds":92,"visibility":10000,"wind_speed":3.02,"wind_deg":67,"wind_gust":6.78,"weather":[{"id":500,"main":"Rain","description":"light
        rain","icon":"10n"}],"pop":0.91,"rain":{"1h":0.25}},{"dt":1619316000,"temp":48.6,"feels_like":48.6,"pressure":1009,"humidity":87,"dew_point":44.91,"uvi":0,"clouds":90,"visibility":10000,"wind_speed":2.95,"wind_deg":76,"wind_gust":7.52,"weather":[{"id":501,"main":"Rain","description":"moderate
        rain","icon":"10n"}],"pop":0.91,"rain":{"1h":1.54}},{"dt":1619319600,"temp":48.69,"feels_like":48.69,"pressure":1009,"humidity":89,"dew_point":45.59,"uvi":0,"clouds":92,"visibility":9878,"wind_speed":2.06,"wind_deg":102,"wind_gust":5.35,"weather":[{"id":500,"main":"Rain","description":"light
        rain","icon":"10n"}],"pop":0.91,"rain":{"1h":0.75}},{"dt":1619323200,"temp":48.78,"feels_like":48.78,"pressure":1009,"humidity":91,"dew_point":46.27,"uvi":0,"clouds":94,"visibility":10000,"wind_speed":2.26,"wind_deg":117,"wind_gust":5.08,"weather":[{"id":500,"main":"Rain","description":"light
        rain","icon":"10n"}],"pop":0.94,"rain":{"1h":0.37}},{"dt":1619326800,"temp":48.83,"feels_like":48.83,"pressure":1008,"humidity":94,"dew_point":47.17,"uvi":0,"clouds":96,"visibility":10000,"wind_speed":1.43,"wind_deg":145,"wind_gust":4.32,"weather":[{"id":500,"main":"Rain","description":"light
        rain","icon":"10n"}],"pop":0.97,"rain":{"1h":0.56}},{"dt":1619330400,"temp":48.74,"feels_like":48.74,"pressure":1008,"humidity":96,"dew_point":47.66,"uvi":0,"clouds":98,"visibility":10000,"wind_speed":1.21,"wind_deg":229,"wind_gust":3.42,"weather":[{"id":500,"main":"Rain","description":"light
        rain","icon":"10n"}],"pop":0.97,"rain":{"1h":0.68}},{"dt":1619334000,"temp":48.56,"feels_like":48.56,"pressure":1008,"humidity":98,"dew_point":47.5,"uvi":0,"clouds":100,"visibility":10000,"wind_speed":2.75,"wind_deg":274,"wind_gust":7.02,"weather":[{"id":500,"main":"Rain","description":"light
        rain","icon":"10n"}],"pop":0.99,"rain":{"1h":0.44}},{"dt":1619337600,"temp":48.24,"feels_like":46.27,"pressure":1009,"humidity":97,"dew_point":47.08,"uvi":0,"clouds":100,"visibility":10000,"wind_speed":4.81,"wind_deg":303,"wind_gust":13.22,"weather":[{"id":500,"main":"Rain","description":"light
        rain","icon":"10n"}],"pop":0.9,"rain":{"1h":0.19}},{"dt":1619341200,"temp":48,"feels_like":45.45,"pressure":1009,"humidity":97,"dew_point":46.6,"uvi":0,"clouds":100,"visibility":10000,"wind_speed":5.73,"wind_deg":320,"wind_gust":17.81,"weather":[{"id":804,"main":"Clouds","description":"overcast
        clouds","icon":"04n"}],"pop":0.87},{"dt":1619344800,"temp":47.89,"feels_like":45.99,"pressure":1009,"humidity":96,"dew_point":46.4,"uvi":0,"clouds":100,"visibility":10000,"wind_speed":4.63,"wind_deg":324,"wind_gust":16.24,"weather":[{"id":804,"main":"Clouds","description":"overcast
        clouds","icon":"04n"}],"pop":0.87},{"dt":1619348400,"temp":47.71,"feels_like":45.84,"pressure":1010,"humidity":96,"dew_point":46.04,"uvi":0,"clouds":100,"visibility":10000,"wind_speed":4.54,"wind_deg":304,"wind_gust":14,"weather":[{"id":804,"main":"Clouds","description":"overcast
        clouds","icon":"04d"}],"pop":0.82},{"dt":1619352000,"temp":47.7,"feels_like":45.03,"pressure":1011,"humidity":95,"dew_point":45.86,"uvi":0.11,"clouds":100,"visibility":10000,"wind_speed":5.79,"wind_deg":305,"wind_gust":16.82,"weather":[{"id":804,"main":"Clouds","description":"overcast
        clouds","icon":"04d"}],"pop":0.66},{"dt":1619355600,"temp":48.31,"feels_like":45.97,"pressure":1011,"humidity":95,"dew_point":46.29,"uvi":0.64,"clouds":100,"visibility":10000,"wind_speed":5.44,"wind_deg":296,"wind_gust":17.27,"weather":[{"id":804,"main":"Clouds","description":"overcast
        clouds","icon":"04d"}],"pop":0.04},{"dt":1619359200,"temp":49.3,"feels_like":47.17,"pressure":1011,"humidity":93,"dew_point":46.76,"uvi":1.29,"clouds":100,"visibility":10000,"wind_speed":5.37,"wind_deg":293,"wind_gust":16.13,"weather":[{"id":804,"main":"Clouds","description":"overcast
        clouds","icon":"04d"}],"pop":0},{"dt":1619362800,"temp":54.32,"feels_like":53.02,"pressure":1011,"humidity":76,"dew_point":46.6,"uvi":2.06,"clouds":91,"visibility":10000,"wind_speed":9.31,"wind_deg":299,"wind_gust":16.08,"weather":[{"id":500,"main":"Rain","description":"light
        rain","icon":"10d"}],"pop":0.33,"rain":{"1h":0.11}},{"dt":1619366400,"temp":57.42,"feels_like":55.81,"pressure":1011,"humidity":63,"dew_point":44.58,"uvi":1.71,"clouds":79,"visibility":10000,"wind_speed":12.62,"wind_deg":302,"wind_gust":18.84,"weather":[{"id":500,"main":"Rain","description":"light
        rain","icon":"10d"}],"pop":0.28,"rain":{"1h":0.13}},{"dt":1619370000,"temp":56.23,"feels_like":54.61,"pressure":1012,"humidity":65,"dew_point":44.29,"uvi":1.93,"clouds":76,"visibility":10000,"wind_speed":14.9,"wind_deg":308,"wind_gust":20.31,"weather":[{"id":500,"main":"Rain","description":"light
        rain","icon":"10d"}],"pop":0.35,"rain":{"1h":0.13}},{"dt":1619373600,"temp":51.62,"feels_like":49.91,"pressure":1013,"humidity":73,"dew_point":42.78,"uvi":1.89,"clouds":79,"visibility":10000,"wind_speed":12.64,"wind_deg":314,"wind_gust":19.62,"weather":[{"id":803,"main":"Clouds","description":"broken
        clouds","icon":"04d"}],"pop":0.32},{"dt":1619377200,"temp":51.37,"feels_like":49.3,"pressure":1014,"humidity":66,"dew_point":39.85,"uvi":4.38,"clouds":99,"visibility":10000,"wind_speed":12.57,"wind_deg":307,"wind_gust":19.55,"weather":[{"id":804,"main":"Clouds","description":"overcast
        clouds","icon":"04d"}],"pop":0.1},{"dt":1619380800,"temp":52.97,"feels_like":50.36,"pressure":1014,"humidity":51,"dew_point":35.06,"uvi":3.13,"clouds":98,"visibility":10000,"wind_speed":10.07,"wind_deg":301,"wind_gust":18.48,"weather":[{"id":804,"main":"Clouds","description":"overcast
        clouds","icon":"04d"}],"pop":0.05},{"dt":1619384400,"temp":54.5,"feels_like":51.71,"pressure":1014,"humidity":44,"dew_point":32.95,"uvi":1.83,"clouds":84,"visibility":10000,"wind_speed":12.41,"wind_deg":304,"wind_gust":18.41,"weather":[{"id":803,"main":"Clouds","description":"broken
        clouds","icon":"04d"}],"pop":0},{"dt":1619388000,"temp":52.72,"feels_like":49.86,"pressure":1015,"humidity":46,"dew_point":32.16,"uvi":0.95,"clouds":66,"visibility":10000,"wind_speed":11.54,"wind_deg":314,"wind_gust":16.98,"weather":[{"id":803,"main":"Clouds","description":"broken
        clouds","icon":"04d"}],"pop":0},{"dt":1619391600,"temp":50.29,"feels_like":47.41,"pressure":1017,"humidity":51,"dew_point":32.56,"uvi":0.29,"clouds":54,"visibility":10000,"wind_speed":10.78,"wind_deg":317,"wind_gust":18.72,"weather":[{"id":803,"main":"Clouds","description":"broken
        clouds","icon":"04d"}],"pop":0},{"dt":1619395200,"temp":46.53,"feels_like":41.95,"pressure":1018,"humidity":55,"dew_point":30.96,"uvi":0,"clouds":61,"visibility":10000,"wind_speed":9.4,"wind_deg":315,"wind_gust":18.41,"weather":[{"id":803,"main":"Clouds","description":"broken
        clouds","icon":"04d"}],"pop":0},{"dt":1619398800,"temp":43.72,"feels_like":39.72,"pressure":1019,"humidity":58,"dew_point":29.53,"uvi":0,"clouds":8,"visibility":10000,"wind_speed":6.82,"wind_deg":314,"wind_gust":17,"weather":[{"id":800,"main":"Clear","description":"clear
        sky","icon":"01n"}],"pop":0},{"dt":1619402400,"temp":42.13,"feels_like":38.32,"pressure":1020,"humidity":63,"dew_point":29.55,"uvi":0,"clouds":44,"visibility":10000,"wind_speed":5.97,"wind_deg":315,"wind_gust":15.97,"weather":[{"id":802,"main":"Clouds","description":"scattered
        clouds","icon":"03n"}],"pop":0},{"dt":1619406000,"temp":39.9,"feels_like":36.34,"pressure":1020,"humidity":69,"dew_point":30.27,"uvi":0,"clouds":39,"visibility":10000,"wind_speed":5.03,"wind_deg":338,"wind_gust":14,"weather":[{"id":802,"main":"Clouds","description":"scattered
        clouds","icon":"03n"}],"pop":0},{"dt":1619409600,"temp":39.61,"feels_like":36.07,"pressure":1021,"humidity":68,"dew_point":29.46,"uvi":0,"clouds":54,"visibility":10000,"wind_speed":4.94,"wind_deg":338,"wind_gust":14.7,"weather":[{"id":803,"main":"Clouds","description":"broken
        clouds","icon":"04n"}],"pop":0},{"dt":1619413200,"temp":39.15,"feels_like":35.85,"pressure":1021,"humidity":67,"dew_point":28.53,"uvi":0,"clouds":63,"visibility":10000,"wind_speed":4.54,"wind_deg":337,"wind_gust":11.59,"weather":[{"id":803,"main":"Clouds","description":"broken
        clouds","icon":"04n"}],"pop":0},{"dt":1619416800,"temp":39.4,"feels_like":36,"pressure":1021,"humidity":65,"dew_point":28.22,"uvi":0,"clouds":69,"visibility":10000,"wind_speed":4.72,"wind_deg":326,"wind_gust":13.35,"weather":[{"id":803,"main":"Clouds","description":"broken
        clouds","icon":"04n"}],"pop":0},{"dt":1619420400,"temp":37.65,"feels_like":35.19,"pressure":1021,"humidity":70,"dew_point":28.33,"uvi":0,"clouds":29,"visibility":10000,"wind_speed":3.44,"wind_deg":320,"wind_gust":9.82,"weather":[{"id":802,"main":"Clouds","description":"scattered
        clouds","icon":"03n"}],"pop":0},{"dt":1619424000,"temp":36.61,"feels_like":33.35,"pressure":1022,"humidity":72,"dew_point":27.88,"uvi":0,"clouds":30,"visibility":10000,"wind_speed":4.05,"wind_deg":328,"wind_gust":12.44,"weather":[{"id":802,"main":"Clouds","description":"scattered
        clouds","icon":"03n"}],"pop":0},{"dt":1619427600,"temp":35.92,"feels_like":33.15,"pressure":1023,"humidity":72,"dew_point":27.18,"uvi":0,"clouds":23,"visibility":10000,"wind_speed":3.49,"wind_deg":334,"wind_gust":10.78,"weather":[{"id":801,"main":"Clouds","description":"few
        clouds","icon":"02n"}],"pop":0},{"dt":1619431200,"temp":35.19,"feels_like":32.58,"pressure":1023,"humidity":73,"dew_point":26.64,"uvi":0,"clouds":21,"visibility":10000,"wind_speed":3.27,"wind_deg":325,"wind_gust":9.55,"weather":[{"id":801,"main":"Clouds","description":"few
        clouds","icon":"02n"}],"pop":0},{"dt":1619434800,"temp":35.33,"feels_like":35.33,"pressure":1024,"humidity":71,"dew_point":26.2,"uvi":0.08,"clouds":19,"visibility":10000,"wind_speed":2.73,"wind_deg":335,"wind_gust":6.76,"weather":[{"id":801,"main":"Clouds","description":"few
        clouds","icon":"02d"}],"pop":0},{"dt":1619438400,"temp":38.26,"feels_like":36.36,"pressure":1025,"humidity":60,"dew_point":25.39,"uvi":0.47,"clouds":18,"visibility":10000,"wind_speed":3.04,"wind_deg":343,"wind_gust":6.22,"weather":[{"id":801,"main":"Clouds","description":"few
        clouds","icon":"02d"}],"pop":0},{"dt":1619442000,"temp":42.33,"feels_like":42.33,"pressure":1025,"humidity":50,"dew_point":24.49,"uvi":1.38,"clouds":15,"visibility":10000,"wind_speed":2.95,"wind_deg":326,"wind_gust":5.75,"weather":[{"id":801,"main":"Clouds","description":"few
        clouds","icon":"02d"}],"pop":0},{"dt":1619445600,"temp":46.18,"feels_like":44.73,"pressure":1024,"humidity":42,"dew_point":24.1,"uvi":2.77,"clouds":12,"visibility":10000,"wind_speed":3.69,"wind_deg":306,"wind_gust":6.62,"weather":[{"id":801,"main":"Clouds","description":"few
        clouds","icon":"02d"}],"pop":0},{"dt":1619449200,"temp":49.78,"feels_like":48.33,"pressure":1024,"humidity":37,"dew_point":24.28,"uvi":4.41,"clouds":11,"visibility":10000,"wind_speed":4.43,"wind_deg":298,"wind_gust":7.54,"weather":[{"id":801,"main":"Clouds","description":"few
        clouds","icon":"02d"}],"pop":0},{"dt":1619452800,"temp":53.28,"feels_like":49.86,"pressure":1023,"humidity":33,"dew_point":25,"uvi":5.73,"clouds":10,"visibility":10000,"wind_speed":4.76,"wind_deg":300,"wind_gust":8.03,"weather":[{"id":800,"main":"Clear","description":"clear
        sky","icon":"01d"}],"pop":0},{"dt":1619456400,"temp":56.3,"feels_like":53.13,"pressure":1022,"humidity":32,"dew_point":26.87,"uvi":6.46,"clouds":24,"visibility":10000,"wind_speed":4.9,"wind_deg":299,"wind_gust":8.08,"weather":[{"id":801,"main":"Clouds","description":"few
        clouds","icon":"02d"}],"pop":0},{"dt":1619460000,"temp":58.55,"feels_like":55.65,"pressure":1021,"humidity":33,"dew_point":29.57,"uvi":6.31,"clouds":32,"visibility":10000,"wind_speed":5.37,"wind_deg":303,"wind_gust":8.97,"weather":[{"id":802,"main":"Clouds","description":"scattered
        clouds","icon":"03d"}],"pop":0},{"dt":1619463600,"temp":60.3,"feels_like":57.63,"pressure":1021,"humidity":34,"dew_point":32.02,"uvi":5.44,"clouds":18,"visibility":10000,"wind_speed":5.26,"wind_deg":306,"wind_gust":8.84,"weather":[{"id":801,"main":"Clouds","description":"few
        clouds","icon":"02d"}],"pop":0},{"dt":1619467200,"temp":61.2,"feels_like":58.71,"pressure":1020,"humidity":36,"dew_point":33.58,"uvi":3.89,"clouds":15,"visibility":10000,"wind_speed":4.81,"wind_deg":312,"wind_gust":7.85,"weather":[{"id":801,"main":"Clouds","description":"few
        clouds","icon":"02d"}],"pop":0},{"dt":1619470800,"temp":61.25,"feels_like":58.86,"pressure":1019,"humidity":38,"dew_point":35.04,"uvi":2.27,"clouds":32,"visibility":10000,"wind_speed":4.16,"wind_deg":312,"wind_gust":6.91,"weather":[{"id":802,"main":"Clouds","description":"scattered
        clouds","icon":"03d"}],"pop":0},{"dt":1619474400,"temp":60.64,"feels_like":58.28,"pressure":1020,"humidity":40,"dew_point":36.16,"uvi":0.98,"clouds":46,"visibility":10000,"wind_speed":3.13,"wind_deg":315,"wind_gust":5.37,"weather":[{"id":802,"main":"Clouds","description":"scattered
        clouds","icon":"03d"}],"pop":0},{"dt":1619478000,"temp":58.32,"feels_like":56.3,"pressure":1020,"humidity":52,"dew_point":40.44,"uvi":0.3,"clouds":56,"visibility":10000,"wind_speed":1.12,"wind_deg":354,"wind_gust":3.15,"weather":[{"id":803,"main":"Clouds","description":"broken
        clouds","icon":"04d"}],"pop":0},{"dt":1619481600,"temp":53.74,"feels_like":51.64,"pressure":1020,"humidity":60,"dew_point":39.6,"uvi":0,"clouds":63,"visibility":10000,"wind_speed":1.21,"wind_deg":80,"wind_gust":2.15,"weather":[{"id":803,"main":"Clouds","description":"broken
        clouds","icon":"04d"}],"pop":0}],"daily":[{"dt":1619283600,"sunrise":1619260074,"sunset":1619309272,"moonrise":1619299020,"moonset":1619256180,"moon_phase":0.4,"temp":{"day":59.07,"min":38.23,"max":59.54,"night":48.69,"eve":50.63,"morn":38.71},"feels_like":{"day":56.61,"night":38.71,"eve":49.44,"morn":38.71},"pressure":1014,"humidity":41,"dew_point":35.46,"wind_speed":5.19,"wind_deg":148,"wind_gust":5.35,"weather":[{"id":501,"main":"Rain","description":"moderate
        rain","icon":"10d"}],"clouds":100,"pop":0.91,"rain":3.24,"uvi":5.03},{"dt":1619370000,"sunrise":1619346392,"sunset":1619395735,"moonrise":1619389920,"moonset":1619344260,"moon_phase":0.44,"temp":{"day":56.23,"min":39.9,"max":57.42,"night":39.9,"eve":50.29,"morn":47.71},"feels_like":{"day":54.61,"night":45.84,"eve":47.41,"morn":45.84},"pressure":1012,"humidity":65,"dew_point":44.29,"wind_speed":14.9,"wind_deg":308,"wind_gust":15.97,"weather":[{"id":500,"main":"Rain","description":"light
        rain","icon":"10d"}],"clouds":76,"pop":0.99,"rain":2.61,"uvi":4.38},{"dt":1619456400,"sunrise":1619432711,"sunset":1619482198,"moonrise":1619480940,"moonset":1619432400,"moon_phase":0.5,"temp":{"day":56.3,"min":35.19,"max":61.25,"night":50.11,"eve":58.32,"morn":35.33},"feels_like":{"day":53.13,"night":35.33,"eve":56.3,"morn":35.33},"pressure":1022,"humidity":32,"dew_point":26.87,"wind_speed":5.37,"wind_deg":303,"wind_gust":5.66,"weather":[{"id":801,"main":"Clouds","description":"few
        clouds","icon":"02d"}],"clouds":24,"pop":0,"uvi":6.46},{"dt":1619542800,"sunrise":1619519031,"sunset":1619568661,"moonrise":1619572140,"moonset":1619520720,"moon_phase":0.52,"temp":{"day":73.78,"min":45.68,"max":77.65,"night":63.55,"eve":68.45,"morn":46.81},"feels_like":{"day":73.02,"night":45.37,"eve":68.09,"morn":45.37},"pressure":1016,"humidity":46,"dew_point":51.28,"wind_speed":12.66,"wind_deg":239,"wind_gust":33.46,"weather":[{"id":803,"main":"Clouds","description":"broken
        clouds","icon":"04d"}],"clouds":53,"pop":0,"uvi":7.04},{"dt":1619629200,"sunrise":1619605352,"sunset":1619655124,"moonrise":1619663280,"moonset":1619609280,"moon_phase":0.56,"temp":{"day":73.31,"min":59.14,"max":73.31,"night":61.93,"eve":64.11,"morn":62.29},"feels_like":{"day":73.44,"night":62.31,"eve":64.45,"morn":62.31},"pressure":1013,"humidity":66,"dew_point":60.94,"wind_speed":11.5,"wind_deg":243,"wind_gust":14.54,"weather":[{"id":500,"main":"Rain","description":"light
        rain","icon":"10d"}],"clouds":100,"pop":1,"rain":4.13,"uvi":7.34},{"dt":1619715600,"sunrise":1619691674,"sunset":1619741586,"moonrise":1619754300,"moonset":1619698260,"moon_phase":0.6,"temp":{"day":63.39,"min":53.69,"max":63.45,"night":53.69,"eve":55,"morn":61.79},"feels_like":{"day":63.81,"night":62.1,"eve":54.66,"morn":62.1},"pressure":1007,"humidity":93,"dew_point":61,"wind_speed":13.24,"wind_deg":227,"wind_gust":18.84,"weather":[{"id":500,"main":"Rain","description":"light
        rain","icon":"10d"}],"clouds":100,"pop":1,"rain":6.44,"uvi":0.13},{"dt":1619802000,"sunrise":1619777998,"sunset":1619828049,"moonrise":0,"moonset":1619787720,"moon_phase":0.64,"temp":{"day":53.56,"min":46.6,"max":53.56,"night":46.6,"eve":48.83,"morn":52.57},"feels_like":{"day":53.19,"night":52.14,"eve":44.53,"morn":52.14},"pressure":1002,"humidity":97,"dew_point":52.23,"wind_speed":10.16,"wind_deg":301,"wind_gust":23.89,"weather":[{"id":501,"main":"Rain","description":"moderate
        rain","icon":"10d"}],"clouds":100,"pop":1,"rain":20.03,"uvi":1},{"dt":1619888400,"sunrise":1619864322,"sunset":1619914511,"moonrise":1619844780,"moonset":1619877660,"moon_phase":0.67,"temp":{"day":46.4,"min":43.52,"max":46.62,"night":44.87,"eve":46.29,"morn":43.52},"feels_like":{"day":42.19,"night":38.66,"eve":43.39,"morn":38.66},"pressure":1011,"humidity":90,"dew_point":43,"wind_speed":9.37,"wind_deg":307,"wind_gust":17.16,"weather":[{"id":500,"main":"Rain","description":"light
        rain","icon":"10d"}],"clouds":100,"pop":1,"rain":1.14,"uvi":1}]}'
  recorded_at: Sun, 25 Apr 2021 01:37:01 GMT
- request:
    method: get
    uri: https://api.flickr.com/services/rest?api_key=420dff41e4312b17f82310895dca8123&extras=url_c&format=json&method=flickr.photos.search&nojsoncallback=1&per_page=1&text=pittsburgh%20pa%20night%20moderate%20rain
    body:
      encoding: US-ASCII
      string: ''
    headers:
      User-Agent:
      - Faraday v1.4.1
      Accept-Encoding:
      - gzip;q=1.0,deflate;q=0.6,identity;q=0.3
      Accept:
      - "*/*"
  response:
    status:
      code: 200
      message: OK
    headers:
      Content-Type:
      - application/json
      Content-Length:
      - '78'
      Connection:
      - keep-alive
      Date:
      - Sun, 25 Apr 2021 01:37:02 GMT
      Server:
      - Apache/2.4.46 (Ubuntu)
      Set-Cookie:
      - ccc=%7B%22needsConsent%22%3Afalse%2C%22managed%22%3A0%2C%22changed%22%3A0%2C%22info%22%3A%7B%22cookieBlock%22%3A%7B%22level%22%3A0%2C%22blockRan%22%3A0%7D%7D%7D;
        expires=Tue, 25-May-2021 01:37:01 GMT; Max-Age=2592000; path=/; domain=.flickr.com
      X-Content-Type-Options:
      - nosniff
      X-Frame-Options:
      - SAMEORIGIN
      X-Cache:
      - Miss from cloudfront
      Via:
      - 1.1 3133fe52d587d21d083278ea7a76d879.cloudfront.net (CloudFront)
      X-Amz-Cf-Pop:
      - MIA3-C2
      X-Amz-Cf-Id:
      - Umgd3rnYUTqJJXwaf-EF7UqxlXZI7A5sa2X4LZm9DFj0xutkPE7kTQ==
    body:
      encoding: UTF-8
      string: '{"photos":{"page":1,"pages":0,"perpage":1,"total":"0","photo":[]},"stat":"ok"}'
  recorded_at: Sun, 25 Apr 2021 01:37:02 GMT
- request:
    method: get
    uri: https://api.flickr.com/services/rest?api_key=420dff41e4312b17f82310895dca8123&extras=url_c&format=json&method=flickr.photos.search&nojsoncallback=1&per_page=1&text=pittsburgh%20pa%20skyline
    body:
      encoding: US-ASCII
      string: ''
    headers:
      User-Agent:
      - Faraday v1.4.1
      Accept-Encoding:
      - gzip;q=1.0,deflate;q=0.6,identity;q=0.3
      Accept:
      - "*/*"
  response:
    status:
      code: 200
      message: OK
    headers:
      Content-Type:
      - application/json
      Content-Length:
      - '359'
      Connection:
      - keep-alive
      Date:
      - Sun, 25 Apr 2021 01:37:02 GMT
      Server:
      - Apache/2.4.46 (Ubuntu)
      Set-Cookie:
      - ccc=%7B%22needsConsent%22%3Afalse%2C%22managed%22%3A0%2C%22changed%22%3A0%2C%22info%22%3A%7B%22cookieBlock%22%3A%7B%22level%22%3A0%2C%22blockRan%22%3A0%7D%7D%7D;
        expires=Tue, 25-May-2021 01:37:02 GMT; Max-Age=2592000; path=/; domain=.flickr.com
      X-Content-Type-Options:
      - nosniff
      X-Frame-Options:
      - SAMEORIGIN
      X-Cache:
      - Miss from cloudfront
      Via:
      - 1.1 019240c167e60128b9dbe3d5c782bc6d.cloudfront.net (CloudFront)
      X-Amz-Cf-Pop:
      - MIA3-C2
      X-Amz-Cf-Id:
      - rTx1iRt6YBG4QIIAYcDcW3h0R7k0RizTQVtl1GyKze_6_PZ0fHSXog==
    body:
      encoding: UTF-8
      string: '{"photos":{"page":1,"pages":8428,"perpage":1,"total":"8428","photo":[{"id":"51129583860","owner":"19789693@N04","secret":"3bedacbb15","server":"65535","farm":66,"title":"Pittsburgh
        Light & Shadow","ispublic":1,"isfriend":0,"isfamily":0,"url_c":"https:\/\/live.staticflickr.com\/65535\/51129583860_3bedacbb15_c.jpg","height_c":516,"width_c":800}]},"stat":"ok"}'
  recorded_at: Sun, 25 Apr 2021 01:37:02 GMT
recorded_with: VCR 6.0.0
